…
``` r
data
```

    ## # A tibble: 199 x 8
    ##       id Date  `IP Address` `Internal Notes` Instructors `Course Number`
    ##    <dbl> <chr> <chr>        <lgl>            <chr>       <chr>          
    ##  1   160 8/22… 131.247.152… NA               GenevieYur… POLS 3260      
    ##  2   853 6/13… 131.247.152… NA               AngelTavar… Drop In        
    ##  3   453 2/1/… 131.247.152… NA               LibbieAlda… Drop In        
    ##  4    98 11/2… 131.247.152… NA               RainaReid   <NA>           
    ##  5    72 8/9/… 131.247.153… NA               LawandaPlu… Telephone      
    ##  6   105 1/2/… 131.247.152… NA               RegenaEhrl… <NA>           
    ##  7   184 3/14… 131.247.152… NA               AlisaGreat… <NA>           
    ##  8   219 2/8/… 131.247.152… NA               YevetteCoc… WRTG 3380      
    ##  9   220 2/8/… 131.247.152… NA               GenevieYur… WRTG 2100      
    ## 10   126 1/31… 131.247.152… NA               AngelTavar… WRTG 2100      
    ## # … with 189 more rows, and 2 more variables: Title <chr>, Faculty <chr>
…
Now we have one table with one column which includes the names of every
individual in this network. However, we need to add a column with unique
IDs to this dataframe. To do so we’ll use the *rowid\_to\_column*
function.

``` r
nodes <- nodes %>%
  rowid_to_column("id")

nodes
```

    ## # A tibble: 154 x 2
    ##       id label          
    ##    <int> <chr>          
    ##  1     1 GenevieYurick  
    ##  2     2 AngelTavares   
    ##  3     3 LibbieAldana   
    ##  4     4 RainaReid      
    ##  5     5 LawandaPlunkett
    ##  6     6 RegenaEhrlich  
    ##  7     7 AlisaGreathouse
    ##  8     8 YevetteCockrill
    ##  9     9 JamesKulick    
    ## 10    10 AleciaGatlin   
    ## # … with 144 more rows

Great! 

``` r
nodes <- mutate(nodes, title = label)

nodes
```

    ## # A tibble: 200 x 4
    ##       id label           group title          
    ##    <dbl> <chr>           <chr> <chr>          
    ##  1    95 AleciaGatlin    F-HUM AleciaGatlin   
    ##  2   159 AnnabelleLord   F-HUM AnnabelleLord  
    ##  3   118 AshlieRepp      F-HUM AshlieRepp     
    ##  4   200 BernitaHambrick F-HUM BernitaHambrick
    ##  5   152 BonnieHunsicker F-HUM BonnieHunsicker
    ##  6    23 BrookeCloninger F-HUM BrookeCloninger
    ##  7    92 CaitlinMagers   F-HUM CaitlinMagers  
    ##  8    89 CandiLamothe    F-HUM CandiLamothe   
    ##  9    85 CarltonMaass    F-HUM CarltonMaass   
    ## 10    93 ChanaLefebvre   F-HUM ChanaLefebvre  
    ## # … with 190 more rows
…
Now, let’s create the edges table (or links). A very similar process.

``` r

per_act <- data %>%
  group_by(Instructors, Faculty) %>%
  summarise(weight = n()) %>%
  ungroup()

per_act

```

    ## # A tibble: 170 x 3
    ##    Instructors     Faculty           weight
    ##    <chr>           <chr>              <int>
    ##  1 AlisaGreathouse AlvinBodden            1
    ##  2 AlisaGreathouse AmyTicknor             1
    ##  3 AlisaGreathouse BerenicePeaslee        1
    ##  4 AlisaGreathouse BrynnAdrian            1
    ##  5 AlisaGreathouse CaitlinMagers          1
    ##  6 AlisaGreathouse CharoletteEldreth      1
    ##  7 AlisaGreathouse ChristianDant          1
    ##  8 AlisaGreathouse CorettaEhrmann         1
    ##  9 AlisaGreathouse CorinneCurd            2
    ## 10 AlisaGreathouse CraigPonte             2
    ## # … with 160 more rows
…
For a reason that will become evident in a second, we need to *mutate*
the edges table and add an additional column to describe the type of
activity. For the sake of convenience, I’ve listed all values under
“title” as “instruction,” but in reality these can include research
consultations, committees, venting, etc.

``` r
edges <- mutate(edges, title = "Instruction")

edges
```

    ## # A tibble: 170 x 4
    ##     from    to weight title      
    ##    <dbl> <dbl>  <int> <chr>      
    ##  1     7    45      1 Instruction
    ##  2     7   103      1 Instruction
    ##  3     7   187      1 Instruction
    ##  4     7   145      1 Instruction
    ##  5     7    92      1 Instruction
    ##  6     7    79      1 Instruction
    ##  7     7    54      1 Instruction
    ##  8     7   123      1 Instruction
    ##  9     7    72      2 Instruction
    ## 10     7   136      2 Instruction
    ## # … with 160 more rows
…
